Building DAG of jobs...
Using shell: /usr/bin/bash
Provided cluster nodes: 1000
Provided resources: mem_gb=990
Unlimited resources: runtime
Job counts:
	count	jobs
	1	get_ffn
	1	repres_genes
	2

[Thu Mar  7 13:28:43 2019]
rule repres_genes:
    input: genes/all_genes.faa
    output: genes/all_genes_rep_seq.fasta
    jobid: 1
    threads: 14
    resources: mem_gb=50, runtime=86400

Submitted job 1 with external jobid '22821259.risoe-r04-sn064.cm.cluster'.
[Thu Mar  7 13:48:34 2019]
Error in rule repres_genes:
    jobid: 1
    output: genes/all_genes_rep_seq.fasta
    cluster_jobid: 22821259.risoe-r04-sn064.cm.cluster

Shutting down, this might take some time.
Exiting because a job execution failed. Look above for error message
Complete log: /home/projects/cge/analysis/global_sewage/reducing_dark_matter/.snakemake/log/2019-03-07T132817.531582.snakemake.log
